{
  "count": 1118,
  "next": "https://pokeapi.co/api/v2/pokemon?offset=0&limit=100",
  "previous": null,
  "results": [
    {
      "name": "bulbasaur",
      "url": "https://pokeapi.co/api/v2/pokemon/1/"
    }
  ]
}